id;title
100720;FEELDO
1020091;SMA SHOP
1022111;Watch2us Store
1032650;3D-Spring Store
103659;Ever Shine Digital Advertising Store
1038443;Shop1038443 Store
103919;Eternal Team.
1045351;The Fashion Wonderland
1046511;SageTechnology
104710;ETstar
104718;QH-Store
1047297;MakerBase Technology Co., Ltd. 
1048722;Geekworm official store
1049641;KS TECH Store
1050779;Discount brand toys
1051583;REPRAP Official Store
1052504;E-live Technology Limited
105327;Orico Official Store
107624; Sunny Electronics
1078314;Gofuly Store
1080478;Shenzhen TopTab Technology Co.,Ltd
108231;qotom Official Store
108412;Shop108412 Store
1084571;JZ Computer store
1085079;BuiltTough Store
1086100;DORA 2014
1086106;ibowin tab Store
1088437;NineStar Image Printing Co., Ltd.
1091026;Rainbow International Trade Co.,LTD
109426;Shenzhen Realan Computer Products Co., Ltd.
1114543;Amy li
1123249;ALLDOCUBE Official Store
112630;Newkita Official Store
1130106;Boutique sales Store
1148064;Shenzhen Etoolink Technology Co., Ltd
115344;Funssor Official Store
1158663;xindaying Network shop Store
1159776;EAIEP Store
1160380;Idea-Shopping Co.,Ltd
1161627;QianHaiTongHua Trading Store
1163193;Shenzhen A-star
116590;VINSIC TopBrand Store
1168318;EOL Outlet
1169094;Shenzhen Helor Cloud Computer Co., Ltd.
1171566;Fashion Leader Home
1181437;GerTong Honesty Store
1181543;Ericxon (ShenZhen) 3C Store
1182157;ANYCUBIC Global Store
1183275;Fashional City Store
1183542;Forsining China Store
1187039;Landing CraftTank Store
1187549;ALLPOWERS Official Store
1188295;SOKI--watch Store
1193541;RabiDeal
1193952;CN Auto Shop
1195094;Shenzhen RongBin Trading Co., Ltd
1197521;GMT
1201455;HESAI 3D Center Store
1212109;Shenzhen Everest Co.,Ltd
1228239;OKLILI Store
123598;XINLONG FACTORY SHOP
1245004;BASEUS OfficialFlagship Store
1247204;Milky Stars
1247213;Starlight House
1260730;YUXI 2017 Store
126075;Shenzhen Kingdel Technology Co., Ltd.
1263205;Tomkas OfficialFlagship Store
1264119;Zeus Electronic Technology Co., Ltd.
1268856;YUNTAB Official Store
127805;Juya Ougeen Factory Official Store
127843;Shenzhen HongyangTechnology Co., Ltd.
1281164;GPD Official Store
1287166;KYF TECHNOLOGY CO,.LTD
1293811;Wintel Store
129606;Shop129606 Store
1296209;Wind River International
1299599;Whyes Official Store
1304516;BGZB Co., Ltd.
1304671;MC Computer accessories Technology Co., Ltd.
1316343;ROMEOU 3D Store
132613;Vakind Stores
1359553;sunsignad Store
1361248;mywatchcode Store
1382212;SmartFly Tech CO.,Ltd.
1383581;HYSTOU Fanless Minipc Store
1390456;AZK 24 hours online phone parts Store
1391773;Dandkey Official Store
1393938;Love Home Mall
1394465;GZ International Trade Co., Ltd
139632;CHANHOW Store
1406603;DALIS Store
1415075;Geeetech Electronics Flagship Store
1423136;Tsimak 3C Store
1424156;MISIMA_Bestclickshop
1441116;Fashionwatch store
1453361;China snlamp projector lamp
1454518;Noah
1454570;Bben Official Store
1459184;Sokey1 Store
1459342;NORTH speciality Store
1465025;Ctime Watch Store
1467030;KEYYOU Official Store
1473520;Skmei Direct Selling Store
1473578;3D Printer Parts Online Store
1474142;ITYAGUY Autoparts Store
1490893;MEEGOPAD
1491069;Keysmith Store
1494743;SUPER 3D TECHNOLOGY CO., LIMITED
1501217;TD Store
1501441;YangChi Autoparts Store
1501885;Partaker Small Computer Store
1502924;Alidubuy Trading Co., Ltd.
1502993;Sunhokey-tech 3D Printer Super Store
1504095;5A Plus
1504763;Artillery 3C Store
1509115;ORICO Official Direct Store Co., Ltd
1518128;The new hot-selling products retail and wholesale
1523494;J&Z TECHNOLOGY LTD
1531088;Mellow
1540205;Alice Watch Store
1542217;Hot sale electronic components Shop
1552358;befon Official Store
1587004;XINMO Store
1608019;INCTEL TECHNOLOGY CO.,LTD
1622104;Watch store
1628074;MSECORE MiniPC
1629969;Partshere
1654223;Trianglelab
1655123;Global RockSpace Store
1668175;Digital Tech Zone
1680063;HFR PC Store
1683415;Watches Station Store
1704152;brand tablet store
1704188;factory laptop Store
1709144;Self beautyblooming Store
1710447;Pursuit Of Elegant Living
1722416;REFRESH Official Store
1726156;Shenzhen Mon-top Technology Co.,Ltd 1
1726325;Teclast Official Store
1726827;Sanda Official Store
1727234;Beylamps Store
1728125;Printing supplies shop
1735177;Bestsell 3C Store
1736565;3D BUILD LIFE Store
1738464;ibowin Store
1739322;iTechnology Life
1746576;stenzhorn king2017 Store
1754884;Shop1754884 Store
1758308;MEHOFOTO BACKDROP Store
1759910;Wintop Trading Store
1761058;Clock and watch world & trading Co.,Ltd
1761705;China Brands AE Technology Co., Ltd. 
1762876;SHENZHEN BDF TOUCH TECHNOLOGY CO.,LTD.
1773376;3C Lemon Tree
1779296;DeepBreaths
1781058;FIVE CITY Digital Store
1795657;BROSHOO Car-parts Store
1796219;Elfin's Home DIY
1797191;Faxion Store
1798763;HZL ELECTRONIC
1799120;CNC best store
1799779;Shenzhen Cool Baby Wholesale Co.,Ltd
1802999;Susenstone
1803238;SHENZHEN OKQI TECHNOLOGY CO., LTD.
1804214;SIKALI SKL REMOTE Store
1805485;Megir Watches Store
1810192;TopKey Store
1813269;H&Y Perfect Time
1816519;ORICO Direct Store
1818196;TOGOOD 3C Store
1818735;CHUWI QH Store
1826311;Chengpin Parts
1830134;aukey official store
1833125;Awesome For You Store
1848200;2017 watch Store
1848430;Bexceed Supermarket Store
1850710;MaGeek official store
1852924;SinobiWatch Store
1853714;Autosmart
1856289;RJ Trading Co., Ltd.
1863043;lRepie OfficialWholesale Store
1871254;bgg whloesale&retail store
1872082;oge official store
1872645;Rock OfficialFlagship Store
1873942;Anker Global Store
1875510;Shenzhen Skyline Technology Co.,Ltd 
1879054;Apollo key world
1879332;MerryMart supermarket Store
1892510;Shenzhen Guanzhi watch Co., Ltd
1897025;Microsmoke
1898047;DailyWareCenter
1898676;SC Store
1899198;H&A Official Store
1899891;Y-MET Store
1904499;TOPTRONICS 3C Store
1905393;KINGROON Factory Store
1905856;RIVAS Laconic Store
1909090;Tuyuet E-Commerce Store
1918462;PisenYoobao Store
1919696;Susan's fashion Electronic Store
1920334;DreamTree Store
1923153;BYKRSEN Store
1924741;Jingyi phone Accessories Store
1927019;HATOLY Official Store
1933561;Colorful-Mall
1935783;TOP-KEY
1935829;Miracle123 Store
1938067;FLOUREON Battery Flagship Store
1938249;Orico Factory store
1941955;H&A 3C Digital Store
1943337;baixin Official Store
1944681;3D_HOME
1945312;Electronic overseas online shopping
1945410;Curren Official Store
1948493;Shenzhen 3DSWAY Technology Co., Ltd.
1955391;GuangZhou Diessol Watch Co.,Ltd
1957871;Ali Smarter Wearable Devices Store
1959120;PLV Global Official Store
1960947;Make-up Car Store
1962255;3D-FANS
1962801;THE FIRST SKY Store
1963541;ROMOSS Accessories Retailer Store
1964963;En-Labs Connectivity Store
1965126;Fanmis Watch Store
1965360;BlitzWolf Official Store
1968177;GSPSCN Official Store
1969452;OGRCNB Digital&Accessories Store
1972741;HUIWEI Official Flagship Store
1980242;KENIO watch Store
1981211;Keep Car life Store
1982320;Frist Time
1982478;Racing 1st Store
1983150;ORICO-Easy Your Life
1983172;TOPK OfficialFlagship Store
1984179;HCCZ Mobile Phone Accessories Dongguan Store
1986121;acute angle
1994143;Ding Han Watches Store
1997135;kuaihe-love Store
2003002;Xiaomi Product Oversea Store
2008001;USAMS Official Store
2023033;1989 Luck Life
2025013;Auto Expert 
2028030;HATOLY Mobile Phone Cases World Store
2031112;Helloplanet
2034001;Only Watches For You
204387;SwiftAutoID Store
205021;NEVERLAND Official Store
205104;True Colors Store
2056067;KCTION Official Store
205820;lylhoyern Official Store
2059148;Bakily Store
2062081;LITBOY Official Store
2068135;Aima car  parts
2069054;E-Tablet&Laptop Store
2071130;olaf OfficialFlagship Store
208695;Base On Users Store
208848;wholesale all kinds of autoparts
2089059;RGeek Computer Store
2091046;Top Auto-parts Store
210160;Jos fan's store
212560;Nicotd Authorised Store
213061;Shenzhen Hoply  Technology Co.,Ltd 
2131044;THIRDM Global Store
2133030;Fish baby 3C Store
2133346;CARBAYTA
2134163;MC-TECH Store
2135107;3D Printer Red
2135185;Mobility store
2136188;BASEUS 3C Digital Store
2139095;Your Car Magician Store
2140093;Kroak Winda Store
2140168;Every Well
2140215;Globale Electronic Style Co.,Ltd
2160029;YZLONG TECHLOGY CO.,LTD
216233;Waveshare Development Kit Store
2166054;STARKING official store
2168018;CG Store
2168046;DreamSindy Officlial Store
2169133;USAMS OfficialFlagship Store Store
2172024;Milly Electronics
217312;EGLOBAL Official Store
2177063;EGLOBAL Top MiniPC
2177064;LEPHEE Official Store
2177083;Aesop Official Store
2178148;Xiaomi Online Store
2179113;CHUWI Official Store
217987;BIGTREETECH Store
2183032;Skmei official store
2184116;Infitary Global Direct- Store
2191181;Tempered Glass Direct Selling
2203008;BOBO BIRD Wooden Watches Store
2204144;Shenzhen White fox Trading Co.,Ltd.
2206166;Car Partsworld Flagships Store
221050;Feida Store
2211001;CRDC official store
2211002;lephee store
2213119;BASEUS Authorized Store
2216020;Jumper official store
2217177;Shop2217177 Store
2222152;Yikexing Store
223897;LVY-Watch Store
2266002;ZNP 3C Store
226896;Shenzhen Perfect World  Technology Co.,Ltd.
228210;HYSTOU Factory Store
228623;BIG TREE TECH CO.,LTD Store
2287063;Legua Official Store
2300058;Cocolockey-XYX Store
2304074;ZNP Official Store
2308053;HJ Store
2334209;SANJIUPrinter 3D Research Center Store
2334278;SiTao Car Parts Store
2334295;Good Goods Store
2335081;Watch World
2335105;PISEN Official Store
2335123;OUYAWEI Official Store
2336004;Xiaomi MC Store
2337167;Flash Drive Storage Device AE Store
2340086;Wolfsay Speciality Store
2340399;YottaMaster Direct Store
2341061;Ali Car Store
2341229;Vicky's Store
2341341;Ankey Direct sales stores Store
2342006;Domi Ant
2342275;Mike Store
2343168;OriginalPhoneAccessories Store
2343184;BASEUS Official Store
2343332;PZOZ 3C Store
2344057;Dok2 Store
2345289;CHANGTA Official Store
2347083;SE-Eletronic
2347271;aoson Official Store
2348062;MakCreate
2349037;NFH OfficialFlagship Store
2370012;Shenzhen PowoTech Co.,Ltd Store
2373009;CHUWI Exce-Tablet Store
237703;GoesCare Outlet Store
2387041;BAOGELA Official Store
2387117;CATA_L Store
2389061;E-Grow Tablet Store
2389070;3C Electronic Shop Store
2394102;BREAK Official Store
2396107;Eternal Battery Store
2401034;Le Cayee Store
2401038;BEWELL Official Store
2401070;Citytime Watch Factory Store
2403033;Motorcycle_top Store
2412069;QUEENYUKI 3D TECH Store
2414054;OGRCNB Phone & Accessories Store
2422007;3C accessory Store
2444008;Keli-te Store
2471035;INKARENA OFFECE SUPPLIES Store
2488055;ZYHY Store
2492042;China Tophui Trading Co., Ltd. Store
2495069;LIGE Men's counter Store
2496012;Rock Official Store
2496045;ZEUSLAP Store
2498059;FYSETC 1th Store
2517003;TIMEIX Store
2533001;Alimart Be-st Store
2541019;Bben PC Stick&Laptop Direct Store
2546008;Topton HTPC Store
2602001;SIJIE Mobile phone accessories Store
2614001;MacroBase Store
2621001;Linlin Digital Store
2622008;Tablet PCs Store
2654143;Haoze supermarket Store
2656187;ZeibeiNy Store
2657177;ZIMINGUTECH Store
2658079;Nicotd Official Store
2659132;Bben MiniPC & Design Store
2660189;RONICAN Store
2662192;ALANS Watch Store
2663228;CNPOWER Store
2665070;Timl Store
2665155;High-End 3D Printing Store
2667067;Shandy Store
2671030;lemonade Store
2671072;ECmall Store
2671073;JZ&ZJ Watch Store
2674190;Uhr Watch Store
2675072;Shop2675072 Store
2676044;Sumjack watchout Store
2676192;IcePhoenixTech Ltd. Store
2676214;A Car Store
2688002;Ivy Watches Store
2727010;3D Factory Store
2727028;MODERN-LIFEstyle Store
2738004;mantis Franchised Store
2749003;K's Automobile&Motorcycle Store
2769018;Reliable Automotive Store
2777019;CAR-FRIEND Store
2783199;Tablet Factory Store
2786175;honyuda Store
2787085;hui qi profession Store
2788195;kinfo watches Store
2792012;Onda Official Store
2794017;Car World owrm Store
2794191;AliWatch Store
2795109;Carving temps Store
2797192;besiter Official Store
2798153;High Range Watch World Store
2799195;WINCO Store
2799227;MACHENIKE Official Store
2800125;THUNDEROBOT Official Store
2800188;Xiaomi Mi Store
2801029;Natasha's Exquisite hour Store
2805164;My Car Store
2809075;CUENA Official Store
2815083;Zan Watch Store
2825063;BOBOBIRD Manufacturer Store
2828100;eHotWholesale Store
2829023;Stay By Hours Store
2829037;Lontab Store
2831028;Smartec Digital Device Store
2835076;100Wholesale Store
2845023;Mikkuppa Wiper Store
2850042;ECUSELLScom Store
2882163;DuoWeiSi 3D Printer Parts Store
2883217;TimeDiary Store
2885282;Gabby Store
2901203;Ali-mart Store
2924007;AmoudoNotebook Store
2925115;KINDOM OF PC Store
2934013;AmoudoLaptop Store
2937004;AmoudoComputer Store
2938065;Shenzhen YLZ Co., Store
2943107;Unity Store
2944128;ZEUSLAP center Store
2944262;KEYYOU Store
2945004;So Store
2945153;China Tablet Store
2946167;ShenZhen Ahblatt Techology company Store
2947134;OICGOO Official Store
2949122;Android Tablet Store
2949167;IdeaFormer Store
2949235;Xiaomi Gshopper Store
2950111;ZEUSLAP Factory Store
2952209;MAXOAK Official Store
2953251;RETECK Official Store
2954189;LIGE Speciality Store
2954245;OGRCNB Digital Store
2956069;Shop2956069 Store
2957039;Mi Online Store
2958125;X-Tech PC Store
2958205;CHANGTA 3D Center Store
2960013;Direct watch Store
2960106;ZEUSLAP LAPTOP Store
2960233;AutoDiy Store
2962181;Alice941010 Store
2965120;Geekthink Official Store
2994070;Discount_Watches Store
2996072;Ark Store
3000030;Scud Official Store
3002003;Yepo Official Store
3004016;Good Gift Store
3004071;Yoobao Official Store
300652;GiftWatch Store
300868;Guangzhou TIMI Trade Co., Ltd.
3012006;ANROKEY Store
3014006;JeJe Watch Store
3018114;lerdge Store
3027002;GloBrand Store
3037006;Looking for Parts Store
3042010;UKey Store
3058001;MINISYS Official Store
3072005;DOOBO Official Store
3079008;Vorcool Official Store
3079111;Bosch Online Store
3081077;Pand Store
3084031;BrandPeripherals Store
3084112;Shop3084112 Store
3085014;WinWo Store
3087032;sekaro Official Store
3089002;Leisure Wristwatch Store
3090052;T-bao Official Store
3094083;AutoRenew Store
3102050;DFORCE 3 d printer Store
3105053;ShoppingApple Store
3108017;FYSETC 2th Store
3108027;Hangzhou WJ Car Store
3110060;MY COLORS Global Store
3112029;ZMI Online Store
3112041;Shenzhen BM Store
3112048;KEWEITE Store
3115070;Erick's Wiper Store
312151;MEGIR Franchised Store
3123020;SuperWatch Store
312313;Shenzhen Zerospace Technology Ltd.
3131018;OICGOO 3C Expert Store
3132019;Elook Watch Store
313501;HK ChengXiang TECH.,LTD
3138050;GUANQIN Wristwatch Store
3144035;Shop3144035 Store
315346;Readeel Official Store
316137;MOLO Technology Co. 
3178021;PFTKJCP Car Parts Store
3190089;Shop3190089 Store
3191015;Robbert 3C Store
3192086;LIGE Official Store
3199093;QCONTROL Store
3207066;Top1 Phone Store
3210023;JohanWorks Store
3210068;3C Phone accessories Store
3210105;iLovejewelry Store
3211040;NAGFAK Official Store
3212005;KMASHI Official Store
3214014;Make It Possible Store
3216090;Further. Store
3216118;WarriorsArrow1st Store
3218054;Ilively Store
3219105;HUANUO Store
3242019;Geneva Store
3243011;Le YingChuang Store
3246016;FUKABO Store
3252004;U Motor Store
3253019;XCR3D Store
3254136;Tomy's 3D Printing Store
3257018;ZOOTOPIA 3D Printing Store
3278027;GPNACN 3C Digital Store
329278;Hi Your Keyless Store
332616;Vership Co., Ltd
334649;gamesalor fashion
3347003;HOCO OfficialFlagship Store
3348004;Carparts-Pro Store
3376038;Tonggaorui Shenzhen Store
3398007;Hannah Martin Official Store
341112;Vida Wu's store
3413020;Puscard Watches Store
3431011;Fangen Store
3432006;Lychzh Store
344361;Casesoon Trading (GZ) Co.,Ltd
346473;SkyStar Store
3514048;dropshipping watch Store
3523074;Ericxon2 (ShenZhen) Store
412626;KINGDOME of TIMEPIECES store
413246;GloryMaster Store
415445;KING OF GOLD LEAF INT'L TRADING CO LTD
415488;Xiaomi Tech Store
423473;3C China Store
433150;Tablet PC Mall
435395;Shenzhen Eglobal Catalog\Import & Export Co., Limited
502051;CHSKY Official Store
505061;Skmei Superpopular Store
507171;DCAE First Store
508672;Feitile store
514171;Jackie Union Trading Co.,Ltd
515631; RCD Wholesale Trading Company 
517727;Pakey Store
517802;Shopping In Lisa's Store
520430;RemaxHK Direct Store
521708;bette Official Store
529542;Bach Melody
532729;Shenzhen Tercel Technology Co.,Ltd.
533994;larvirgo laptop Store
537726;Annie Li
538010;Wolfrule Official Store
600815;CN-AUCTION Store
600869;Taylor  Story
602905;Beautiful Watch Store
604857;KINGDEL COMPUTER ONLINE STORE
607740;Laptop Factory
609872;Dico Co.,Limited
610359;Tiny Boutique World
613711;HYSTOU Official Store
615891;Readeel factory Store
616669;KMAX Official Store
617131;NAVIFORCE factory Store
619734;Joffing Quality Store
624224;Timer
625273;STD E-commerce Store
625531;Phonefans' Tribe
632018;DCAE Store
632124;Love watch. Store
636329;BEBIRDCASE Official Store
638893;dyno's store
701042;Yueqing Aotoro Electric Automation Co., Ltd.
702841;THUNDER SPEED TECHNOLOGY LIMITED
705736;KINGDEL TECHNOLOGY CO., LTD.
709298;Tomkas Official Store
712829;Laptop computers store 
714305;NAVIFORCE Dropshopping Watch Store
714715;Leslie ConsumerElectronics Store
715805;Newking Store
718232;BIG TREE TECH Store
719317;Eyki Ma's store
721071;ANYCUBIC Official Store
722716;Thinlink Technology Co.,Ltd
727381;QT-FX Laptop Factory Store
728600;AutoKey's Store
732885;Thumb Keys
735917;Global Green Digital Parts Store
800890;IP-Mart PowerBank Store
800900;INCTEL Technology Co.,Limited
802656;Galavey Electronics Co, Ltd
804673;TopColorSun Store
805904;Shenzhen SC Technology Ltd.
806798;Nopending store
808810;artisome Official Store
809228;Yicheng Laptop Manufacture
811115;Mr. Injector's Store
811509;LAPTOP Wholesaler Store
811975;Shenzhen NIBO Science and Technology Co., Ltd.
812180;Best Deal Group
812975;Tollcuudda store
813825;IBOPAIDA Store
813933;Purei Store
817796;Shenzhen Innovative Cloud Computer Co., Ltd.
821721;Erin Tang
826516;Hellen's 3C Store
834897;linkcnc Store
835329;VINSIC Official Store
837425;ANYCUBIC Store
903192;WorldFone  Electronics CO.,LTD
903733;WooYi Store
906320;Suntaiho Official Store
909311;DIGITALTOOLS Technology Ltd. 
916581;Shenzhen QSS Electronics Co.,Ltd
919337;Happy Gloria
921146;Readeel Watch Store
925512;Top Mall Group Ltd
938039;Thouport Official Store