{
    "tokenizer": {
        "type": "edge_ngram",
        "min_gram": 3,
        "max_gram": 10,
        "token_chars": [
            "letter",
            "digit"
        ]
    },
    "filter":  [ "lowercase", "asciifolding" ],
    "text": "JAPAN NEW QY6-0049 Printhead Print Head Printer Head for Canon 860i 865 i860 i865 MP770 MP790 iP4000 iP4100 MP750 MP760 MP780"
}