{
    "LARAMIE": {
        "CHEYENNE": {
            "0": "82001",
            "1": "82002",
            "2": "82003",
            "4": "82006",
            "5": "82007",
            "6": "82008",
            "7": "82009",
            "8": "82010"
        },
        "FE WARREN AFB": {
            "3": "82005"
        },
        "ALBIN": {
            "9": "82050"
        },
        "BURNS": {
            "12": "82053"
        },
        "CARPENTER": {
            "13": "82054"
        },
        "GRANITE CANON": {
            "16": "82059"
        },
        "HILLSDALE": {
            "17": "82060"
        },
        "HORSE CREEK": {
            "18": "82061"
        },
        "MERIDEN": {
            "24": "82081"
        },
        "PINE BLUFFS": {
            "25": "82082"
        }
    },
    "ALBANY": {
        "BOSLER": {
            "10": "82051"
        },
        "BUFORD": {
            "11": "82052"
        },
        "CENTENNIAL": {
            "14": "82055"
        },
        "GARRETT": {
            "15": "82058"
        },
        "JELM": {
            "19": "82063"
        },
        "LARAMIE": {
            "20": "82070",
            "21": "82071",
            "22": "82072",
            "23": "82073"
        },
        "ROCK RIVER": {
            "26": "82083"
        },
        "TIE SIDING": {
            "27": "82084"
        }
    },
    "PARK": {
        "YELLOWSTONE NATIONAL PARK": {
            "28": "82190"
        },
        "CODY": {
            "67": "82414"
        },
        "FRANNIE": {
            "71": "82423"
        },
        "MEETEETSE": {
            "78": "82433"
        },
        "POWELL": {
            "80": "82435"
        },
        "RALSTON": {
            "81": "82440"
        },
        "WAPITI": {
            "85": "82450"
        }
    },
    "PLATTE": {
        "WHEATLAND": {
            "29": "82201"
        },
        "CHUGWATER": {
            "30": "82210"
        },
        "GLENDO": {
            "32": "82213"
        },
        "GUERNSEY": {
            "33": "82214"
        },
        "HARTVILLE": {
            "34": "82215"
        }
    },
    "GOSHEN": {
        "FORT LARAMIE": {
            "31": "82212"
        },
        "HAWK SPRINGS": {
            "35": "82217"
        },
        "HUNTLEY": {
            "36": "82218"
        },
        "JAY EM": {
            "37": "82219"
        },
        "LAGRANGE": {
            "38": "82221"
        },
        "LINGLE": {
            "40": "82223"
        },
        "TORRINGTON": {
            "45": "82240"
        },
        "VETERAN": {
            "47": "82243"
        },
        "YODER": {
            "48": "82244"
        }
    },
    "NIOBRARA": {
        "LANCE CREEK": {
            "39": "82222"
        },
        "LUSK": {
            "42": "82225"
        },
        "MANVILLE": {
            "43": "82227"
        },
        "VAN TASSELL": {
            "46": "82242"
        }
    },
    "CONVERSE": {
        "LOST SPRINGS": {
            "41": "82224"
        },
        "SHAWNEE": {
            "44": "82229"
        },
        "BILL": {
            "104": "82631"
        },
        "DOUGLAS": {
            "105": "82633"
        },
        "GLENROCK": {
            "108": "82637"
        }
    },
    "CARBON": {
        "RAWLINS": {
            "49": "82301"
        },
        "BAGGS": {
            "51": "82321"
        },
        "DIXON": {
            "53": "82323"
        },
        "ELK MOUNTAIN": {
            "54": "82324"
        },
        "ENCAMPMENT": {
            "55": "82325"
        },
        "HANNA": {
            "56": "82327"
        },
        "MEDICINE BOW": {
            "57": "82329"
        },
        "SARATOGA": {
            "58": "82331"
        },
        "SAVERY": {
            "59": "82332"
        },
        "SINCLAIR": {
            "60": "82334"
        },
        "WALCOTT": {
            "61": "82335"
        },
        "SHIRLEY BASIN": {
            "101": "82615"
        }
    },
    "FREMONT": {
        "JEFFREY CITY": {
            "50": "82310"
        },
        "RIVERTON": {
            "86": "82501"
        },
        "ARAPAHOE": {
            "87": "82510"
        },
        "CROWHEART": {
            "88": "82512"
        },
        "DUBOIS": {
            "89": "82513"
        },
        "FORT WASHAKIE": {
            "90": "82514"
        },
        "HUDSON": {
            "91": "82515"
        },
        "KINNEAR": {
            "92": "82516"
        },
        "LANDER": {
            "93": "82520"
        },
        "PAVILLION": {
            "94": "82523"
        },
        "SAINT STEPHENS": {
            "95": "82524"
        },
        "LYSITE": {
            "112": "82642"
        },
        "SHOSHONI": {
            "117": "82649"
        }
    },
    "SWEETWATER": {
        "BAIROIL": {
            "52": "82322"
        },
        "WAMSUTTER": {
            "62": "82336"
        },
        "ROCK SPRINGS": {
            "151": "82901",
            "152": "82902"
        },
        "LITTLE AMERICA": {
            "156": "82929"
        },
        "FARSON": {
            "159": "82932"
        },
        "GRANGER": {
            "161": "82934"
        },
        "GREEN RIVER": {
            "162": "82935"
        },
        "MC KINNON": {
            "165": "82938"
        },
        "POINT OF ROCKS": {
            "168": "82942"
        },
        "RELIANCE": {
            "169": "82943"
        },
        "SUPERIOR": {
            "171": "82945"
        }
    },
    "WASHAKIE": {
        "WORLAND": {
            "63": "82401"
        },
        "TEN SLEEP": {
            "83": "82442"
        }
    },
    "BIG HORN": {
        "BASIN": {
            "64": "82410"
        },
        "BURLINGTON": {
            "65": "82411"
        },
        "BYRON": {
            "66": "82412"
        },
        "COWLEY": {
            "68": "82420"
        },
        "DEAVER": {
            "69": "82421"
        },
        "EMBLEM": {
            "70": "82422"
        },
        "GREYBULL": {
            "72": "82426"
        },
        "HYATTVILLE": {
            "74": "82428"
        },
        "LOVELL": {
            "76": "82431"
        },
        "MANDERSON": {
            "77": "82432"
        },
        "OTTO": {
            "79": "82434"
        },
        "SHELL": {
            "82": "82441"
        }
    },
    "HOT SPRINGS": {
        "HAMILTON DOME": {
            "73": "82427"
        },
        "KIRBY": {
            "75": "82430"
        },
        "THERMOPOLIS": {
            "84": "82443"
        }
    },
    "NATRONA": {
        "CASPER": {
            "96": "82601",
            "97": "82602",
            "98": "82604",
            "99": "82605",
            "100": "82609"
        },
        "ALCOVA": {
            "102": "82620"
        },
        "ARMINTO": {
            "103": "82630"
        },
        "EDGERTON": {
            "106": "82635"
        },
        "EVANSVILLE": {
            "107": "82636"
        },
        "HILAND": {
            "109": "82638"
        },
        "MIDWEST": {
            "113": "82643"
        },
        "MILLS": {
            "114": "82644"
        },
        "NATRONA": {
            "115": "82646"
        },
        "POWDER RIVER": {
            "116": "82648"
        }
    },
    "JOHNSON": {
        "KAYCEE": {
            "110": "82639"
        },
        "LINCH": {
            "111": "82640"
        },
        "BUFFALO": {
            "141": "82834"
        },
        "SADDLESTRING": {
            "147": "82840"
        }
    },
    "WESTON": {
        "NEWCASTLE": {
            "118": "82701"
        },
        "FOUR CORNERS": {
            "124": "82715"
        },
        "OSAGE": {
            "130": "82723"
        },
        "UPTON": {
            "134": "82730"
        }
    },
    "CROOK": {
        "ALADDIN": {
            "119": "82710"
        },
        "ALVA": {
            "120": "82711"
        },
        "BEULAH": {
            "121": "82712"
        },
        "CARLILE": {
            "122": "82713"
        },
        "DEVILS TOWER": {
            "123": "82714"
        },
        "HULETT": {
            "128": "82720"
        },
        "MOORCROFT": {
            "129": "82721"
        },
        "SUNDANCE": {
            "133": "82729"
        }
    },
    "CAMPBELL": {
        "GILLETTE": {
            "125": "82716",
            "126": "82717",
            "127": "82718"
        },
        "RECLUSE": {
            "131": "82725"
        },
        "ROZET": {
            "132": "82727"
        },
        "WESTON": {
            "135": "82731"
        },
        "WRIGHT": {
            "136": "82732"
        }
    },
    "SHERIDAN": {
        "SHERIDAN": {
            "137": "82801"
        },
        "ARVADA": {
            "138": "82831"
        },
        "BANNER": {
            "139": "82832"
        },
        "BIG HORN": {
            "140": "82833"
        },
        "CLEARMONT": {
            "142": "82835"
        },
        "DAYTON": {
            "143": "82836"
        },
        "LEITER": {
            "144": "82837"
        },
        "PARKMAN": {
            "145": "82838"
        },
        "RANCHESTER": {
            "146": "82839"
        },
        "STORY": {
            "148": "82842"
        },
        "WOLF": {
            "149": "82844"
        },
        "WYARNO": {
            "150": "82845"
        }
    },
    "SUBLETTE": {
        "BONDURANT": {
            "153": "82922"
        },
        "BOULDER": {
            "154": "82923"
        },
        "CORA": {
            "155": "82925"
        },
        "PINEDALE": {
            "167": "82941"
        },
        "BIG PINEY": {
            "183": "83113"
        },
        "DANIEL": {
            "185": "83115"
        }
    },
    "UINTA": {
        "EVANSTON": {
            "157": "82930",
            "158": "82931"
        },
        "FORT BRIDGER": {
            "160": "82933"
        },
        "LONETREE": {
            "163": "82936"
        },
        "LYMAN": {
            "164": "82937"
        },
        "MOUNTAIN VIEW": {
            "166": "82939"
        },
        "ROBERTSON": {
            "170": "82944"
        }
    },
    "TETON": {
        "JACKSON": {
            "172": "83001",
            "173": "83002"
        },
        "KELLY": {
            "174": "83011"
        },
        "MOOSE": {
            "175": "83012"
        },
        "MORAN": {
            "176": "83013"
        },
        "WILSON": {
            "177": "83014"
        },
        "TETON VILLAGE": {
            "178": "83025"
        }
    },
    "LINCOLN": {
        "KEMMERER": {
            "179": "83101"
        },
        "AFTON": {
            "180": "83110"
        },
        "AUBURN": {
            "181": "83111"
        },
        "BEDFORD": {
            "182": "83112"
        },
        "COKEVILLE": {
            "184": "83114"
        },
        "DIAMONDVILLE": {
            "186": "83116"
        },
        "ETNA": {
            "187": "83118"
        },
        "FAIRVIEW": {
            "188": "83119"
        },
        "FREEDOM": {
            "189": "83120"
        },
        "FRONTIER": {
            "190": "83121"
        },
        "GROVER": {
            "191": "83122"
        },
        "LA BARGE": {
            "192": "83123"
        },
        "OPAL": {
            "193": "83124"
        },
        "SMOOT": {
            "194": "83126"
        },
        "THAYNE": {
            "195": "83127"
        },
        "ALPINE": {
            "196": "83128"
        }
    }
}